Assignment 08
…
## Creating recipe
bills_rec <- recipe(passed~., data = bills_train) %>%
  step_tokenize(description) %>%
  step_stopwords(description) %>%
  step_stem(description) %>%
  step_tokenfilter(description) %>%
  step_tfidf(description)

(d)

## Prepping and Baking Recipe
bake(prep(bills_rec, training = bills_train), new_data = bills_train)

# A tibble: 2,661 × 101
   passed tfidf_descri…¹ tfidf…² tfidf…³ tfidf…⁴ tfidf…⁵ tfidf…⁶ tfidf…⁷ tfidf…⁸
   <fct>           <dbl>   <dbl>   <dbl>   <dbl>   <dbl>   <dbl>   <dbl>   <dbl>
 1 0              0.0221  0.0254 0.00713   0      0.0137  0       0.0301  0.0119
 2 0              0.0500  0.0505 0         0      0       0       0.0636  0     
 3 0              0       0      0         0.585  0       0       0.244   0     
 4 1              0       0      0         0      0       0       0       0     
 5 0              0       0      0.0521    0      0       0       0.0586  0     
 6 0              0.0411  0.0415 0         0      0       0       0.0784  0     
 7 0              0       0      0         0      0       0       0.0396  0     
 8 0              0       0      0         0      0       0       0.0813  0     
 9 0              0.0460  0.0464 0         0      0       0       0.0293  0     
10 0              0.0303  0.0305 0.0343    0      0       0.0547  0.0193  0     
# … with 2,651 more rows, 92 more variables: tfidf_description_activ <dbl>,
#   tfidf_description_administr <dbl>, tfidf_description_agenc <dbl>,
#   tfidf_description_agreement <dbl>, tfidf_description_allow <dbl>,
#   tfidf_description_amend <dbl>, tfidf_description_amount <dbl>,
#   tfidf_description_applic <dbl>, tfidf_description_appropri <dbl>,
#   tfidf_description_area <dbl>, tfidf_description_assist <dbl>,
#   tfidf_description_author <dbl>, tfidf_description_avail <dbl>, …
custom_stop_words <- c("1", "2", "3", "2015", "2016", "a", "an", "and", 
                       "account", "act", "code", "doc")

## Re-creating recipe
bills_rec2 <- recipe(passed~., data = bills_train) %>%
  step_tokenize(description) %>%
  step_stopwords(description, custom_stopword_source = custom_stop_words) %>%
  step_stem(description) %>%
  step_tokenfilter(description) %>%
  step_tfidf(description)

## Prepping and Baking Recipe
bake(prep(bills_rec2, training = bills_train), new_data = bills_train)

# A tibble: 2,661 × 101
   passed tfidf_descri…¹ tfidf…² tfidf…³ tfidf…⁴ tfidf…⁵ tfidf…⁶ tfidf…⁷ tfidf…⁸
   <fct>           <dbl>   <dbl>   <dbl>   <dbl>   <dbl>   <dbl>   <dbl>   <dbl>
 1 0              0.0139  0.0183  0.0106 0.00260  0.0307 0.00426  0.0109 0.00279
 2 0              0       0       0      0        0      0.0191   0.0244 0      
 3 0              0       0       0      0        0      0        0      0      
 4 1              0       0       0      0        0      0        0      0      
 5 0              0.0276  0       0.0421 0        0      0.0225   0.0287 0      
 6 0              0.0203  0       0      0        0      0        0      0      
 7 0              0.0155  0.0934  0      0        0      0.0127   0.0646 0      
 8 0              0       0       0      0        0      0.0260   0.0331 0      
 9 0              0       0.0243  0      0.0240   0      0.0263   0.117  0      
10 0              0       0       0      0        0      0        0.0182 0      
# … with 2,651 more rows, 92 more variables: tfidf_description_ar <dbl>,
#   tfidf_description_assist <dbl>, tfidf_description_at <dbl>,
#   tfidf_description_author <dbl>, tfidf_description_be <dbl>,
#   tfidf_description_bill <dbl>, tfidf_description_by <dbl>,
#   tfidf_description_care <dbl>, tfidf_description_certain <dbl>,
#   tfidf_description_commun <dbl>, tfidf_description_congress <dbl>,
#   tfidf_description_depart <dbl>, tfidf_description_design <dbl>, …
…
(f)

## Selecting the Predictions
predictions <- bind_cols(
  bills_test,
  predict(object = lr_fit, new_data = bills_test),
  predict(object = lr_fit, new_data = bills_test, type = "prob")
)

## The Predictions
select(predictions, passed, starts_with(".pred"))

# A tibble: 887 × 4
   passed .pred_class  .pred_1 .pred_0
   <fct>  <fct>          <dbl>   <dbl>
 1 0      0           0.0168     0.983
 2 0      0           0.00329    0.997
 3 0      0           0.00327    0.997
 4 0      0           0.000864   0.999
 5 0      0           0.0301     0.970
 6 0      0           0.0495     0.950
 7 0      0           0.0168     0.983
 8 0      0           0.00906    0.991
 9 0      0           0.109      0.891
10 0      0           0.000385   1.00 
# … with 877 more rows
…
## Recall/Sensitivity
recall(data = predictions, truth = passed, estimate = .pred_class)

# A tibble: 1 × 3
  .metric .estimator .estimate
  <chr>   <chr>          <dbl>
1 recall  binary          0.05

## ROC Curve
roc_curve(data = predictions, truth = passed, estimate = .pred_1)

# A tibble: 854 × 3
    .threshold specificity sensitivity
         <dbl>       <dbl>       <dbl>
 1 -Inf             0                1
 2    2.22e-16      0                1
 3    1.14e-13      0.0104           1
 4    1.68e-12      0.0115           1
 5    2.58e-12      0.0127           1
 6    2.83e-12      0.0138           1
 7    4.04e-12      0.0150           1
 8    5.37e-12      0.0161           1
 9    6.72e-12      0.0173           1
10    7.58e-12      0.0185           1
# … with 844 more rows
…
